id;tipo;tipo_identificacion;nombre;fecha_nacimiento;sexo;estado_civil;fecha_ingreso;reside_colombia;declarante
1;N;TI;generating Maine input;2020-09-11;M;V;2020-09-11;true;false
2;N;RC;transmit initiatives policy;2020-09-11;F;S;2020-09-11;false;false
3;J;RC;Bedfordshire;2020-09-11;M;S;2020-09-11;false;true
4;J;TI;lime Home Loan Account Investment Account;2020-09-11;F;V;2020-09-11;true;true
5;J;CE;Practical Metal Keyboard 24/365 cultivate;2020-09-11;M;V;2020-09-11;true;false
6;N;CE;microchip Route Salad;2020-09-11;M;UL;2020-09-11;true;true
7;N;RC;Alabama;2020-09-11;F;D;2020-09-11;true;false
8;J;TI;tan Interactions;2020-09-11;F;V;2020-09-11;false;false
9;N;TI;compressing Reactive;2020-09-11;M;D;2020-09-11;false;false
10;J;CE;Avon Health;2020-09-11;F;UL;2020-09-11;false;false
