id;descripcion;saldo_minimo;saldo_maximo
1;envisioneer payment;48116;3346
2;program mint green Division;25566;59777
3;Baby Azerbaijanian Manat;51950;98235
4;Inlet Practical Steel Chair Practical;44273;61372
5;integrated;68687;77242
6;Metrics repurpose;13365;7651
7;deposit platforms;5061;51354
8;Zloty;26858;90941
9;e-tailers navigating;55538;77378
10;Central;83228;16171
