{
  "fluentMethods": true,
  "clientRootFolder": "",
  "relationships": [],
  "fields": [
    {
      "fieldName": "tipo",
      "fieldType": "TipoCliente",
      "fieldValues": "N,J",
      "fieldValidateRules": []
    },
    {
      "fieldName": "tipoIdentificacion",
      "fieldType": "TipoIdentificacion",
      "fieldValues": "C,N,CE,TI,RC"
    },
    {
      "fieldName": "nombre",
      "fieldType": "String"
    },
    {
      "fieldName": "fechaNacimiento",
      "fieldType": "LocalDate"
    },
    {
      "fieldName": "sexo",
      "fieldType": "Sexo",
      "fieldValues": "M,F"
    },
    {
      "fieldName": "estadoCivil",
      "fieldType": "EstadoCivil",
      "fieldValues": "S,C,D,UL,V"
    },
    {
      "fieldName": "fechaIngreso",
      "fieldType": "LocalDate"
    },
    {
      "fieldName": "resideColombia",
      "fieldType": "Boolean"
    },
    {
      "fieldName": "declarante",
      "fieldType": "Boolean"
    }
  ],
  "changelogDate": "20200911231212",
  "dto": "no",
  "searchEngine": false,
  "service": "serviceClass",
  "entityTableName": "cliente",
  "databaseType": "sql",
  "readOnly": false,
  "jpaMetamodelFiltering": true,
  "pagination": "pagination"
}
