{
  "fluentMethods": true,
  "clientRootFolder": "",
  "relationships": [
    {
      "relationshipName": "idCliente",
      "otherEntityName": "cliente",
      "relationshipType": "many-to-one",
      "otherEntityField": "id",
      "otherEntityRelationshipName": "desercion"
    },
    {
      "relationshipName": "idFondo",
      "otherEntityName": "fondo",
      "relationshipType": "many-to-one",
      "otherEntityField": "id",
      "otherEntityRelationshipName": "desercion"
    },
    {
      "relationshipName": "idFideicomiso",
      "otherEntityName": "fideicomiso",
      "relationshipType": "many-to-one",
      "otherEntityField": "id",
      "otherEntityRelationshipName": "desercion"
    },
    {
      "relationshipName": "idComercial",
      "otherEntityName": "comercial",
      "relationshipType": "many-to-one",
      "otherEntityField": "id",
      "otherEntityRelationshipName": "desercion"
    },
    {
      "relationshipName": "idPerfilAhorro",
      "otherEntityName": "perfilAhorro",
      "relationshipType": "many-to-one",
      "otherEntityField": "id",
      "otherEntityRelationshipName": "desercion"
    },
    {
      "relationshipName": "idPerfilComercial",
      "otherEntityName": "perfilComercial",
      "relationshipType": "many-to-one",
      "otherEntityField": "id",
      "otherEntityRelationshipName": "desercion"
    }
  ],
  "fields": [
    {
      "fieldName": "fecha",
      "fieldType": "LocalDate"
    },
    {
      "fieldName": "edad",
      "fieldType": "String",
      "fieldValidateRules": ["minlength", "maxlength"],
      "fieldValidateRulesMinlength": "1",
      "fieldValidateRulesMaxlength": "3"
    },
    {
      "fieldName": "nroPromedioRetiros",
      "fieldType": "Integer"
    },
    {
      "fieldName": "nroPromedioAportes",
      "fieldType": "Integer"
    },
    {
      "fieldName": "netoPromMovimientos",
      "fieldType": "Integer"
    },
    {
      "fieldName": "diasUltimoMov",
      "fieldType": "Integer"
    },
    {
      "fieldName": "posibleSul",
      "fieldType": "Boolean"
    }
  ],
  "changelogDate": "20200912002936",
  "dto": "no",
  "searchEngine": false,
  "service": "serviceClass",
  "entityTableName": "desercion",
  "databaseType": "sql",
  "readOnly": false,
  "jpaMetamodelFiltering": true,
  "pagination": "pagination"
}
